%YAML 1.1
%TAG !u! tag:unity3d.com,2011:
--- !u!1045 &1
EditorBuildSettings:
  m_ObjectHideFlags: 0
  serializedVersion: 2
  m_Scenes:
  - enabled: 1
    path: Assets/Scenes/Menu.unity
    guid: 99c9720ab356a0642a771bea13969a05
  - enabled: 1
    path: Assets/Scenes/Template/FirstPerson_Scene.unity
    guid: d7506d0732ae996408ce0dcb2473ac69
  - enabled: 1
    path: Assets/Scenes/Template/Plataformer_Scene.unity
    guid: ab9142201ec00f84bbd7939227d9e531
  - enabled: 1
    path: Assets/Scenes/Template/Credits.unity
    guid: 7d33a308964264d42bfe35d1a7ec7fbb
  m_configObjects: {}
